…
``` r
news <- news %>% 
  mutate(content = paste(title, text, sep = " "),
         label = if_else(label == 1, "true", "fake"),
         label = factor(label, levels = c("true","fake"))) %>% # Setting 'true' as event level
  relocate(label, .before = 1) %>% 
  select(-title,-text) 
news
```

    ## # A tibble: 20,800 x 4
    ##    label    id author                       content                             
    ##    <fct> <dbl> <chr>                        <chr>                               
    ##  1 true      0 Darrell Lucus                "House Dem Aide: We Didn’t Even See~
    ##  2 fake      1 Daniel J. Flynn              "FLYNN: Hillary Clinton, Big Woman ~
    ##  3 true      2 Consortiumnews.com           "Why the Truth Might Get You Fired ~
    ##  4 true      3 Jessica Purkiss              "15 Civilians Killed In Single US A~
    ##  5 true      4 Howard Portnoy               "Iranian woman jailed for fictional~
    ##  6 fake      5 Daniel Nussbaum              "Jackie Mason: Hollywood Would Love~
    ##  7 true      6 nan                          "Life: Life Of Luxury: Elton John’s~
    ##  8 fake      7 Alissa J. Rubin              "Benoît Hamon Wins French Socialist~
    ##  9 fake      8 nan                          "Excerpts From a Draft Script for D~
    ## 10 fake      9 Megan Twohey and Scott Shane "A Back-Channel Plan for Ukraine an~
    ## # ... with 20,790 more rows
…
